{
    "applications": {
        "OldBook": {
            "applicationId": "mzhUVsf2I5Dxb9T4ptFtpIFWOXS20f5qWxJJPOnR", 
            "masterKey": "tFnjqshtZoQ8OGHSy49niC6oUVyqBvrEQkhT84eH"
        }, 
        "_default": {
            "link": "OldBook"
        }
    }, 
    "global": {
        "parseVersion": "1.2.8"
    }
}